Module 2 Project
…
In the figure above, we see the two tables and their columns represented. The key columns are outlined in gray. The arrow indicates the direction and manner of the join: the smaller speeds table that, based on the key values will add the remaining m.s and cm.s columns to the pseed table on its left.

Fortunately, the powerful data analysis package dplyr in the tidyverse has a join function for just such an operation: join_left(), joining new data to left data. Here’s how this works:

pseed2 <- pseed%>%
  left_join(speeds,by=c("speed"="vol"))%>%
  print()

## # A tibble: 73,352 x 9
##    fish   speed frame date                amp fin   amp.bl   m.s  cm.s
##    <chr>  <dbl> <dbl> <chr>             <dbl> <chr>  <dbl> <dbl> <dbl>
##  1 Pseed5    43     0 2019-06-17-151149  88.3 L      0.167  0.11    11
##  2 Pseed5    43     0 2019-06-17-151149 101.  R      0.190  0.11    11
##  3 Pseed5    43     1 2019-06-17-151149  83.2 L      0.157  0.11    11
##  4 Pseed5    43     1 2019-06-17-151149  99.4 R      0.188  0.11    11
##  5 Pseed5    43     2 2019-06-17-151149  81.1 L      0.154  0.11    11
##  6 Pseed5    43     2 2019-06-17-151149  97.0 R      0.184  0.11    11
##  7 Pseed5    43     3 2019-06-17-151149  66.2 L      0.125  0.11    11
##  8 Pseed5    43     3 2019-06-17-151149  92.9 R      0.176  0.11    11
##  9 Pseed5    43     4 2019-06-17-151149  68.6 L      0.130  0.11    11
## 10 Pseed5    43     4 2019-06-17-151149  88.8 R      0.168  0.11    11
## # … with 73,342 more rows
…
Let’s go ahead and join the body length table pseed.bl with the results tibble pseed2 using left_join() again. Notice we’ll redefine pseed2 as this new merged tibble:

pseed2 <- pseed2%>%
  left_join(pseed.bl,by="fish")%>%
  print()

## # A tibble: 73,352 x 10
##    fish   speed frame date                amp fin   amp.bl   m.s  cm.s    bl
##    <chr>  <dbl> <dbl> <chr>             <dbl> <chr>  <dbl> <dbl> <dbl> <dbl>
##  1 Pseed5    43     0 2019-06-17-151149  88.3 L      0.167  0.11    11  12.7
##  2 Pseed5    43     0 2019-06-17-151149 101.  R      0.190  0.11    11  12.7
##  3 Pseed5    43     1 2019-06-17-151149  83.2 L      0.157  0.11    11  12.7
##  4 Pseed5    43     1 2019-06-17-151149  99.4 R      0.188  0.11    11  12.7
##  5 Pseed5    43     2 2019-06-17-151149  81.1 L      0.154  0.11    11  12.7
##  6 Pseed5    43     2 2019-06-17-151149  97.0 R      0.184  0.11    11  12.7
##  7 Pseed5    43     3 2019-06-17-151149  66.2 L      0.125  0.11    11  12.7
##  8 Pseed5    43     3 2019-06-17-151149  92.9 R      0.176  0.11    11  12.7
##  9 Pseed5    43     4 2019-06-17-151149  68.6 L      0.130  0.11    11  12.7
## 10 Pseed5    43     4 2019-06-17-151149  88.8 R      0.168  0.11    11  12.7
## # … with 73,342 more rows

We now have BL in cm stored in a bl column. Now we need to compute specific speed in BL\(\cdot\)s\(^{-1}\). Because pseed2 now contains cm.s (cm\(\cdot\)s\(^{-1}\)) and bl (in cm), all that’s left to do is compute a new bl.s column based on dividing cm.s by bl.s. For this, we’ll mutate the tibble, that is, add a new column with this calculation.

pseed2 <- pseed2%>%
  mutate(bl.s=cm.s/bl)%>%
  print()

## # A tibble: 73,352 x 11
##    fish   speed frame date              amp fin   amp.bl   m.s  cm.s    bl  bl.s
##    <chr>  <dbl> <dbl> <chr>           <dbl> <chr>  <dbl> <dbl> <dbl> <dbl> <dbl>
##  1 Pseed5    43     0 2019-06-17-151…  88.3 L      0.167  0.11    11  12.7 0.863
##  2 Pseed5    43     0 2019-06-17-151… 101.  R      0.190  0.11    11  12.7 0.863
##  3 Pseed5    43     1 2019-06-17-151…  83.2 L      0.157  0.11    11  12.7 0.863
##  4 Pseed5    43     1 2019-06-17-151…  99.4 R      0.188  0.11    11  12.7 0.863
##  5 Pseed5    43     2 2019-06-17-151…  81.1 L      0.154  0.11    11  12.7 0.863
##  6 Pseed5    43     2 2019-06-17-151…  97.0 R      0.184  0.11    11  12.7 0.863
##  7 Pseed5    43     3 2019-06-17-151…  66.2 L      0.125  0.11    11  12.7 0.863
##  8 Pseed5    43     3 2019-06-17-151…  92.9 R      0.176  0.11    11  12.7 0.863
##  9 Pseed5    43     4 2019-06-17-151…  68.6 L      0.130  0.11    11  12.7 0.863
## 10 Pseed5    43     4 2019-06-17-151…  88.8 R      0.168  0.11    11  12.7 0.863
## # … with 73,342 more rows
…
Pivoting to Different Questions

In our readings of R4DS, we learned about tidy data. Specifically, tidy data are a data set that meets the following requirements: 1. Each variable must have its own column. 2. Each observation must have its own row. 3. Each value must have its own cell.

Fortunately the data sets we’ve been working with in this project are tidy. We have observations for a fin, on fish, during an experiment, at certain speed. Each of these variables have their own column. This allows us to compute operations across rows and by groups according to column variables (experiment, fin, fish, etc.). If our data weren’t we could use pivoting operations we learned about to make it tidy. However, sometimes you want to make additional observations, asking a different question even, and we need to do the pivoting operations just the same.

In asking how each fin’s amplitude varies with each speed across fish, we can do operations on these variables and plot them easily enough as we just have. But, what if the question changes to what is the sum of amplitude of both fins over our range of speeds? Because our data are tidy and the amplitude of each fin is in a different row for each frame, this is made difficult. Have a look at pseed2 again:

pseed2

## # A tibble: 73,352 x 11
##    fish   speed frame date              amp fin   amp.bl   m.s  cm.s    bl  bl.s
##    <chr>  <dbl> <dbl> <chr>           <dbl> <chr>  <dbl> <dbl> <dbl> <dbl> <dbl>
##  1 Pseed5    43     0 2019-06-17-151…  88.3 L      0.167  0.11    11  12.7 0.863
##  2 Pseed5    43     0 2019-06-17-151… 101.  R      0.190  0.11    11  12.7 0.863
##  3 Pseed5    43     1 2019-06-17-151…  83.2 L      0.157  0.11    11  12.7 0.863
##  4 Pseed5    43     1 2019-06-17-151…  99.4 R      0.188  0.11    11  12.7 0.863
##  5 Pseed5    43     2 2019-06-17-151…  81.1 L      0.154  0.11    11  12.7 0.863
##  6 Pseed5    43     2 2019-06-17-151…  97.0 R      0.184  0.11    11  12.7 0.863
##  7 Pseed5    43     3 2019-06-17-151…  66.2 L      0.125  0.11    11  12.7 0.863
##  8 Pseed5    43     3 2019-06-17-151…  92.9 R      0.176  0.11    11  12.7 0.863
##  9 Pseed5    43     4 2019-06-17-151…  68.6 L      0.130  0.11    11  12.7 0.863
## 10 Pseed5    43     4 2019-06-17-151…  88.8 R      0.168  0.11    11  12.7 0.863
## # … with 73,342 more rows

Note each frame has two rows, one for each fin. How would we compute the sum of the amplitude for each frame? You migh at first think we should add column (say amp.sum) to the tibble that represents the sum of the amplitudes, left and right, for each frame across experiments:

pseed2 <- pseed2 %>%
  group_by(date,frame) %>%
  mutate(amp.sum=sum(amp.bl))

When we do this, our data now violates a tidy principle, namely that each data value must have it’s own cell (especially data that are responses to other variables we care about!). Look at our amp.sum column and you see that each value spans two cells, one for each fin. This makes the data appear as if there is an amp.sum for each fin. To fix this, and keep the data tidy, we could delete one of the rows for each frame in each experiment:

pseed2 %>%
  filter(fin=="R")

## # A tibble: 36,676 x 12
## # Groups:   date, frame [36,676]
##    fish   speed frame date      amp fin   amp.bl   m.s  cm.s    bl  bl.s amp.sum
##    <chr>  <dbl> <dbl> <chr>   <dbl> <chr>  <dbl> <dbl> <dbl> <dbl> <dbl>   <dbl>
##  1 Pseed5    43     0 2019-0… 101.  R     0.190   0.11    11  12.7 0.863   0.357
##  2 Pseed5    43     1 2019-0…  99.4 R     0.188   0.11    11  12.7 0.863   0.346
##  3 Pseed5    43     2 2019-0…  97.0 R     0.184   0.11    11  12.7 0.863   0.337
##  4 Pseed5    43     3 2019-0…  92.9 R     0.176   0.11    11  12.7 0.863   0.301
##  5 Pseed5    43     4 2019-0…  88.8 R     0.168   0.11    11  12.7 0.863   0.298
##  6 Pseed5    43     5 2019-0…  82.0 R     0.155   0.11    11  12.7 0.863   0.271
##  7 Pseed5    43     6 2019-0…  74.3 R     0.141   0.11    11  12.7 0.863   0.242
##  8 Pseed5    43     7 2019-0…  66.1 R     0.125   0.11    11  12.7 0.863   0.212
##  9 Pseed5    43     8 2019-0…  57.3 R     0.108   0.11    11  12.7 0.863   0.178
## 10 Pseed5    43     9 2019-0…  49.7 R     0.0939  0.11    11  12.7 0.863   0.149
## # … with 36,666 more rows

But, I’m sure you see the problem—we’ve lost half our data and amp.sum appears to apply only to the right fin. We can avoid this problem by pivoting our data, making it wider. That is, we can give left and right fins their own amplitude column and sum the values of these to get our sum of amplitude. Here’s how with pivot_wider():

pseed.wide <- pseed2 %>%
  select(-amp)%>%
  pivot_wider(names_from = fin,values_from = amp.bl) %>%
  mutate(amp.sum=L+R)%>%
  print() 

## # A tibble: 36,676 x 11
## # Groups:   date, frame [36,676]
##    fish   speed frame date           m.s  cm.s    bl  bl.s amp.sum      L      R
##    <chr>  <dbl> <dbl> <chr>        <dbl> <dbl> <dbl> <dbl>   <dbl>  <dbl>  <dbl>
##  1 Pseed5    43     0 2019-06-17-…  0.11    11  12.7 0.863   0.357 0.167  0.190 
##  2 Pseed5    43     1 2019-06-17-…  0.11    11  12.7 0.863   0.346 0.157  0.188 
##  3 Pseed5    43     2 2019-06-17-…  0.11    11  12.7 0.863   0.337 0.154  0.184 
##  4 Pseed5    43     3 2019-06-17-…  0.11    11  12.7 0.863   0.301 0.125  0.176 
##  5 Pseed5    43     4 2019-06-17-…  0.11    11  12.7 0.863   0.298 0.130  0.168 
##  6 Pseed5    43     5 2019-06-17-…  0.11    11  12.7 0.863   0.271 0.116  0.155 
##  7 Pseed5    43     6 2019-06-17-…  0.11    11  12.7 0.863   0.242 0.101  0.141 
##  8 Pseed5    43     7 2019-06-17-…  0.11    11  12.7 0.863   0.212 0.0867 0.125 
##  9 Pseed5    43     8 2019-06-17-…  0.11    11  12.7 0.863   0.178 0.0691 0.108 
## 10 Pseed5    43     9 2019-06-17-…  0.11    11  12.7 0.863   0.149 0.0550 0.0939
## # … with 36,666 more rows
…
