Module 3 Project
…
anole2 <- anole%>%
left_join(anole.eco)%>%
  filter(!Ecomorph%in%c("U","CH"))%>%
  na.omit()%>%
  print()

## Joining with `by = join_by(Species)`

## # A tibble: 46 × 7
##    Species                SVL HTotal    PH ArbPD Ecomorph Ecomorph2   
##    <chr>                <dbl>  <dbl> <dbl> <dbl> <chr>    <chr>       
##  1 Anolis_ahli           57.6   46.8 104.    8.5 TG       trunk-ground
##  2 Anolis_aliniger       55.9   34.8 463.   18.6 TC       trunk-crown 
##  3 Anolis_allisoni       77.3   45.3 310.   12.1 TC       trunk-crown 
##  4 Anolis_allogus        54.8   44.2 128.    8.1 TG       trunk-ground
##  5 Anolis_alutaceus      35.3   27.1  92.8   3.1 GB       grass-bush  
##  6 Anolis_angusticeps    41.5   20.9 309.    0.9 TW       twig        
##  7 Anolis_bahorucoensis  43.9   36.2 150     2.7 GB       grass-bush  
##  8 Anolis_barahonae     156.   105.  825    33   CG       crown-giant 
##  9 Anolis_brevirostris   47     35   102.   21.1 T        trunk       
## 10 Anolis_chlorocyanus   68.7   43.9 357.   10.6 TC       trunk-crown 
## # ℹ 36 more rows
…
In the previous project, we introduced the concept of
facets. If you recall, facets are used to break the plot up into a
grid according values in the data. Let’s massage the data to a longer
format and then use a faceting function from ggplot to plot
the phlyognetically corrected and uncorrected residuals against ecomorph
with a boxplot. This is how it can be done:

anole.log%>%
  dplyr::select(Ecomorph2,res,phylo.res)%>%
  pivot_longer(cols=c("res","phylo.res"))%>%
  print%>%
  ggplot(aes(x=Ecomorph2,y=value)) +geom_boxplot() +stat_summary(fun=mean, geom="point", size=3)+facet_grid(name~.,scales = "free_y")+ylab("residual")

## # A tibble: 92 × 3
##    Ecomorph2    name         value
##    <chr>        <chr>        <dbl>
##  1 trunk-ground res        0.152  
##  2 trunk-ground phylo.res -0.00747
##  3 trunk-crown  res       -0.113  
##  4 trunk-crown  phylo.res -0.0801 
##  5 trunk-crown  res       -0.176  
##  6 trunk-crown  phylo.res -0.203  
##  7 trunk-ground res        0.148  
##  8 trunk-ground phylo.res -0.00357
##  9 grass-bush   res        0.0980 
## 10 grass-bush   phylo.res  0.0868 
## # ℹ 82 more rows
…
