Module 7 Project
…
AICs <- dat%>%
  group_by(subject,exp)%>%
  summarize(
    m2=AICc(lm(force~poly(ang,2))), #second order
    m3=AICc(lm(force~poly(ang,3))), #third order
    m4=AICc(lm(force~poly(ang,4))) #fourth order
  )%>%
  pivot_longer(m2:m4,names_to="model",values_to="AICc")%>%
  print()

## # A tibble: 60 × 4
## # Groups:   subject [10]
##    subject exp     model  AICc
##      <int> <chr>   <chr> <dbl>
##  1       1 control m2    -43.2
##  2       1 control m3    -39.3
##  3       1 control m4    -42.5
##  4       1 fatigue m2    -49.3
##  5       1 fatigue m3    -46.0
##  6       1 fatigue m4    -37.7
##  7       2 control m2    -43.8
##  8       2 control m3    -39.4
##  9       2 control m4    -55.2
## 10       2 fatigue m2    -57.6
## # ℹ 50 more rows
…
## Warning: Returning more (or less) than 1 row per `summarise()` group was deprecated in
## dplyr 1.1.0.
## ℹ Please use `reframe()` instead.
## ℹ When switching from `summarise()` to `reframe()`, remember that `reframe()`
##   always returns an ungrouped data frame and adjust accordingly.
## Call `lifecycle::last_lifecycle_warnings()` to see where this warning was
## generated.

## # A tibble: 60 × 4
## # Groups:   subject, exp [20]
##    subject exp     model theta_max
##      <int> <chr>   <chr>     <dbl>
##  1       1 control m2         107.
##  2       1 control m3         103.
##  3       1 control m4         104.
##  4       1 fatigue m2         115.
##  5       1 fatigue m3         118.
##  6       1 fatigue m4         117.
##  7       2 control m2         107.
##  8       2 control m3         103.
##  9       2 control m4         105.
## 10       2 fatigue m2         115.
## # ℹ 50 more rows
…
