Module 6 Project Notes
…
Now we can combine all the data in the list, group by subject, time, and mass, then summarize with mean(). Then, pivot the table wider (with names from time and values from the mean temp calculation) so that we can later find the difference between day and night temperatures.

dat <- do.call(rbind,d.l)%>%
  group_by(subject,time,mass)%>%
  summarize(m.temp=mean(Temp))%>%
  pivot_wider(names_from=time,values_from=m.temp)%>%
  mutate(t.diff=abs(day-night))%>%
  print

## `summarise()` regrouping output by 'subject', 'time' (override with `.groups` argument)

## # A tibble: 30 x 5
## # Groups:   subject [30]
##    subject    mass   day night t.diff
##    <chr>     <dbl> <dbl> <dbl>  <dbl>
##  1 subject01 52000  38.0  37.2 0.794 
##  2 subject02 73000  37.3  36.9 0.342 
##  3 subject03 59000  36.7  36.5 0.189 
##  4 subject04 72000  38.1  37.6 0.433 
##  5 subject05 64000  29.7  29.6 0.0759
##  6 subject06 61000  36.2  34.7 1.41  
##  7 subject07 52000  35.2  33.7 1.51  
##  8 subject08 93000  29.6  29.1 0.525 
##  9 subject09 52000  38.1  37.7 0.325 
## 10 subject10 63500  30.0  29.8 0.184 
## # … with 20 more rows

Answering the First Question

What is the relationship between \(T_{\Delta}\) and body mass in humans? I.e., is there a relationship and if so, is it allometric rather than isometric? Be sure to estimate important model parameters including scaling coefficients and slopes.

First, let’s log transform the data and set it aside in a new tibble

dat.log <- dat%>%
  select(subject,mass,t.diff)%>%
  mutate_at(c("mass","t.diff"),log)%>%
  print()

## # A tibble: 30 x 3
## # Groups:   subject [30]
##    subject    mass t.diff
##    <chr>     <dbl>  <dbl>
##  1 subject01  10.9 -0.231
##  2 subject02  11.2 -1.07 
##  3 subject03  11.0 -1.66 
##  4 subject04  11.2 -0.836
##  5 subject05  11.1 -2.58 
##  6 subject06  11.0  0.342
##  7 subject07  10.9  0.410
##  8 subject08  11.4 -0.644
##  9 subject09  10.9 -1.13 
## 10 subject10  11.1 -1.69 
## # … with 20 more rows
…
m.dat <- read_csv("mammal.temp.csv")%>%
  mutate(t.diff=abs(T.high-T.low))%>%
  print()

## Parsed with column specification:
## cols(
##   Order = col_character(),
##   species = col_character(),
##   mass.g = col_double(),
##   T.high = col_double(),
##   T.low = col_double()
## )

## # A tibble: 51 x 6
##    Order        species                 mass.g T.high T.low t.diff
##    <chr>        <chr>                    <dbl>  <dbl> <dbl>  <dbl>
##  1 Artiodactyla Bos taurus              500250   39.4  38.5  0.900
##  2 Artiodactyla Capra hircus             30000   39.1  38.6  0.5  
##  3 Artiodactyla Hippopotamus amphibius 2300000   36.5  35.8  0.7  
##  4 Artiodactyla Lama glama              142000   38.2  37.7  0.5  
##  5 Artiodactyla Lama pacos               60250   38.2  37.8  0.4  
##  6 Artiodactyla Sus scrofa              100500   38.7  38.1  0.6  
##  7 Carnivora    Canis familiaris         15000   38.4  37.7  0.700
##  8 Carnivora    Vulpes zerda              1000   38.5  37.3  1.2  
##  9 Carnivora    Herpestes sanguineus       540   39.2  37.3  1.9  
## 10 Carnivora    Nasua nasua               3850   38.3  37.4  0.900
## # … with 41 more rows
dat.mean <- dat%>%
  mutate(Order="Primata",
        species="Homo sapien"
        )%>%
  group_by(Order,species)%>%
  summarize(mass.g=mean(mass,na.rm = T),t.diff=mean(t.diff,na.rm=T)) #remove NA in data 

## `summarise()` regrouping output by 'Order' (override with `.groups` argument)

m.dat <- m.dat%>%
  select(-T.high,-T.low)%>%
  rbind(dat.mean)%>%
  print()

## # A tibble: 52 x 4
##    Order        species                 mass.g t.diff
##    <chr>        <chr>                    <dbl>  <dbl>
##  1 Artiodactyla Bos taurus              500250  0.900
##  2 Artiodactyla Capra hircus             30000  0.5  
##  3 Artiodactyla Hippopotamus amphibius 2300000  0.7  
##  4 Artiodactyla Lama glama              142000  0.5  
##  5 Artiodactyla Lama pacos               60250  0.4  
##  6 Artiodactyla Sus scrofa              100500  0.6  
##  7 Carnivora    Canis familiaris         15000  0.700
##  8 Carnivora    Vulpes zerda              1000  1.2  
##  9 Carnivora    Herpestes sanguineus       540  1.9  
## 10 Carnivora    Nasua nasua               3850  0.900
## # … with 42 more rows
…
