Module 8 Project
…
Now let’s take our data and get AICc scores for our three polynomial models. We’ll group the data by subject and experiment and retrieve AICc from each model (m2, m3, and m4). Then, we’ll pivot the tibble to a longer format so that we have a single column for AICc values.

AICs <- dat%>%
  group_by(subject,exp)%>%
  summarize(
    m2=AICc(lm(force~poly(ang,2))), #second order
    m3=AICc(lm(force~poly(ang,3))), #third order
    m4=AICc(lm(force~poly(ang,4))) #fourth order
  )%>%
  pivot_longer(m2:m4,names_to="model",values_to="AICc")%>%
  print()

## # A tibble: 60 × 4
## # Groups:   subject [10]
##    subject exp     model  AICc
##      <int> <chr>   <chr> <dbl>
##  1       1 control m2    -43.2
##  2       1 control m3    -39.3
##  3       1 control m4    -42.5
##  4       1 fatigue m2    -49.3
##  5       1 fatigue m3    -46.0
##  6       1 fatigue m4    -37.7
##  7       2 control m2    -43.8
##  8       2 control m3    -39.4
##  9       2 control m4    -55.2
## 10       2 fatigue m2    -57.6
## # … with 50 more rows
Now we’ll do something very similar, predicting values for 1000 discrete angles across our range of elbow positions. Notice that we’ve summarized the data by subject, experiment and model to find the angle (x.pred) which matches the max force value.

fits <- dat%>%
  group_by(subject,exp)%>%
  summarize(
    m2=predict(lm(force~poly(ang,2)),newdata=data.frame(ang=x.pred)), #second order
    m3=predict(lm(force~poly(ang,3)),newdata=data.frame(ang=x.pred)), #third order
    m4=predict(lm(force~poly(ang,4)),newdata=data.frame(ang=x.pred)) #fourth order
  )%>%
   pivot_longer(m2:m4,names_to="model")%>%
   group_by(subject,exp,model)%>%
   summarize(theta_max=x.pred[which.max(value)])%>%
   print()

## # A tibble: 60 × 4
## # Groups:   subject, exp [20]
##    subject exp     model theta_max
##      <int> <chr>   <chr>     <dbl>
##  1       1 control m2         107.
##  2       1 control m3         103.
##  3       1 control m4         104.
##  4       1 fatigue m2         115.
##  5       1 fatigue m3         118.
##  6       1 fatigue m4         117.
##  7       2 control m2         107.
##  8       2 control m3         103.
##  9       2 control m4         105.
## 10       2 fatigue m2         115.
## # … with 50 more rows
…
