schedule.utf8.md
…
Now we haven’t answered one of our questions, How many specimenss for species?. This, again is super easy with dplyr and the pipe. Here, we pass data to a count() function that counts observations according to groups (“species” and “specimen” in this case), use print() so you can see the output, and then we count this outputs observations by “species” to find the unique values of “specimen”.

dat %>% 
  count(species,specimen) %>%
  print() %>%
  count(species,name = "n.specimens")

## # A tibble: 25 x 3
##    species        specimen     n
##    <fct>          <fct>    <int>
##  1 A. rupestris   Arup_1     100
##  2 A. rupestris   Arup_2      83
##  3 A. rupestris   Arup_3      78
##  4 A. rupestris   Arup_4     102
##  5 L. gibbosus    Lgib_1      52
##  6 L. gibbosus    Lgib_2      53
##  7 L. gibbosus    Lgib_3      53
##  8 L. gibbosus    Lgib_4      55
##  9 L. gibbosus    Lgib_5      39
## 10 L. macrochirus Lmac_1     115
## # … with 15 more rows
…
