Module 2: Data Wrangling
…
## Merging/joining data

join based on species

``` r
iris_long %>% 
  left_join(pH)
```

```
## Joining with `by = join_by(Species, name)`
```

```
## # A tibble: 600 × 4
##    Species name         value    pH
##    <fct>   <chr>        <dbl> <dbl>
##  1 setosa  Sepal.Length   5.1  7.01
##  2 setosa  Sepal.Width    3.5  6.35
##  3 setosa  Petal.Length   1.4  5.11
##  4 setosa  Petal.Width    0.2  7.99
##  5 setosa  Sepal.Length   4.9  7.01
##  6 setosa  Sepal.Width    3    6.35
##  7 setosa  Petal.Length   1.4  5.11
##  8 setosa  Petal.Width    0.2  7.99
##  9 setosa  Sepal.Length   4.7  7.01
## 10 setosa  Sepal.Width    3.2  6.35
## # ℹ 590 more rows
```
…
